<script type="text/javascript">
function Validate(){
   if(!validateForm()){
       alert("Please select an available time to meet.");
       return false;
   }
return true
}
function validateForm()
{
    var c=document.getElementsByTagName('input');
    for (var i = 0; i<c.length; i++){
        if (c[i].type=='checkbox')
        {
            if (c[i].checked){return true}
        }
    }
    return false;
}
</script>