00
01
02
03
04
05
06
07
08
09
010
011
11
11
12
13
14
15
16
17
18
19
110
111
20
21
22
23
24
25
26
27
28
29
210
211
30
31
32
33
34
35
36
37
38
39
310
311
40
41
42
43
44
45
46
47
48
49
410
411
50
51
52
53
54
55
56
57
58
59
510
511
60
61
62
63
64
65
66
67
68
69
610
611